Analysis of Kanye West Songs
…
  audio_data$audio_features$explicit <- song_data$tracks$explicit
  audio_data$audio_features$popularity <- song_data$tracks$popularity
  
  #add to list
  audio_df_list[i] <- audio_data
  i <- i + 1
  
}

To get our final desired one data frame, we just need to merge everything. Using the reduce function we can merge each data frame from the list all in one call leading to the final data frame. I suggest looking at the Spotify documentation to understand what these metrics mean, found here

all_audio <- Reduce(function(x, y) merge(x,y,all=TRUE), audio_df_list)
as_tibble(all_audio)

## # A tibble: 154 x 21
##    danceability energy   key loudness  mode speechiness acousticness
##           <dbl>  <dbl> <int>    <dbl> <int>       <dbl>        <dbl>
##  1        0.228  0.861    11   - 3.60     0      0.125       0.0113 
##  2        0.235  0.273     6   -11.3      1      0.0290      0.721  
##  3        0.236  0.115    10   -16.5      0      0.0349      0.912  
##  4        0.289  0.283    10   -13.2      0      0.0483      0.949  
##  5        0.291  0.874    11   - 3.27     0      0.0909      0.0125 
##  6        0.304  0.756    11   - 4.86     1      0.135       0.0162 
##  7        0.328  0.273     6   -11.2      1      0.0287      0.701  
##  8        0.336  0.683     6   - 6.82     0      0.151       0.00735
##  9        0.359  0.662     1   - 2.84     1      0.0466      0.134  
## 10        0.362  0.602     5   - 6.09     0      0.0681      0.0136 
## # ... with 144 more rows, and 14 more variables: instrumentalness <dbl>,
## #   liveness <dbl>, valence <dbl>, tempo <dbl>, type <chr>, id <chr>,
## #   uri <chr>, track_href <chr>, analysis_url <chr>, duration_ms <int>,
## #   time_signature <int>, songtitle <chr>, explicit <lgl>,
## #   popularity <int>
…
